title,price,description
Пеллетный котел Marten Comfort Pellet F 20,72000,"Пеллетный котел Marten Comfort Pellet предназначен для отопления помещений. Основными видами топлива являются древесная пеллета и пеллета из лузги подсолнечника.  Длительность сгорания разовой загрузки топлива зависит от объема загрузочного бункера и колеблется в диапазоне от 3 до 7 дней в зависимости от номинальной мощности котла."
Пеллетный котел Marten Comfort Pellet F 30,82000,"Пеллетный котел Marten Comfort Pellet предназначен для отопления помещений. Основными видами топлива являются древесная пеллета и пеллета из лузги подсолнечника.  Длительность сгорания разовой загрузки топлива зависит от объема загрузочного бункера и колеблется в диапазоне от 3 до 7 дней в зависимости от номинальной мощности котла."
Пеллетный котел Marten Comfort Pellet F 40,89000,"Пеллетный котел Marten Comfort Pellet предназначен для отопления помещений. Основными видами топлива являются древесная пеллета и пеллета из лузги подсолнечника.  Длительность сгорания разовой загрузки топлива зависит от объема загрузочного бункера и колеблется в диапазоне от 3 до 7 дней в зависимости от номинальной мощности котла."
Пеллетный котел Marten Comfort Pellet F 50,99000,"Пеллетный котел Marten Comfort Pellet предназначен для отопления помещений. Основными видами топлива являются древесная пеллета и пеллета из лузги подсолнечника.  Длительность сгорания разовой загрузки топлива зависит от объема загрузочного бункера и колеблется в диапазоне от 3 до 7 дней в зависимости от номинальной мощности котла."
Пеллетный котел Marten Comfort Pellet F 98,175000,"Пеллетный котел Marten Comfort Pellet предназначен для отопления помещений. Основными видами топлива являются древесная пеллета и пеллета из лузги подсолнечника.  Длительность сгорания разовой загрузки топлива зависит от объема загрузочного бункера и колеблется в диапазоне от 3 до 7 дней в зависимости от номинальной мощности котла."
Пеллетный котел Marten Comfort Pellet F 80,145000,"Пеллетный котел Marten Comfort Pellet предназначен для отопления помещений. Основными видами топлива являются древесная пеллета и пеллета из лузги подсолнечника.  Длительность сгорания разовой загрузки топлива зависит от объема загрузочного бункера и колеблется в диапазоне от 3 до 7 дней в зависимости от номинальной мощности котла."
Котел на дровах и угле Marten Base MB-12,8200,"Marten Base - это серия доступных, надежных и удобных котлов, которые появились благодаря глубокой проработке потребностей рынка и многолетнему опыту конструирования и производства котлов. Все эти требования максимально учтены в моделях MARTEN BASE. Вы можете максимально эффективно отопить свой дом благодаря увеличенному теплообменнику, состоящему из водяной рубашки, водонаполненных колосников, массивной верхней водонаполненной полки и труб, максимально замедляющих проход горячих дымогазов в дымоход. Благодаря такому решению мы добились увеличения эффективности теплообменника. Топливом для MARTEN BASE являются дрова, уголь, брикеты, щепа, ветки. Котел энергонезависим и будет поддерживать тепло в доме на протяжении 4-5 часов. После прогорания топлива котел легко чистится благодаря большим дверцам и встроенному зольному ящику. Регулировка горения осуществляется с помощью термомеханического регулятора (в комплекте не поставляется). При необходимости предусмотрена возможность для установки вентилятора наддува и контролера."
Котел на дровах и угле Marten Base-12V,8400,"Marten Base - это серия доступных, надежных и удобных котлов, которые появились благодаря глубокой проработке потребностей рынка и многолетнему опыту конструирования и производства котлов. Все эти требования максимально учтены в моделях MARTEN BASE. Вы можете максимально эффективно отопить свой дом благодаря увеличенному теплообменнику, состоящему из водяной рубашки, водонаполненных колосников, массивной верхней водонаполненной полки и труб, максимально замедляющих проход горячих дымогазов в дымоход. Благодаря такому решению мы добились увеличения эффективности теплообменника. Топливом для MARTEN BASE являются дрова, уголь, брикеты, щепа, ветки. Котел энергонезависим и будет поддерживать тепло в доме на протяжении 4-5 часов. После прогорания топлива котел легко чистится благодаря большим дверцам и встроенному зольному ящику. Регулировка горения осуществляется с помощью термомеханического регулятора (в комплекте не поставляется). При необходимости предусмотрена возможность для установки вентилятора наддува и контролера."
Котел на дровах и угле Marten Base-15,8600,"Marten Base - это серия доступных, надежных и удобных котлов, которые появились благодаря глубокой проработке потребностей рынка и многолетнему опыту конструирования и производства котлов. Все эти требования максимально учтены в моделях MARTEN BASE. Вы можете максимально эффективно отопить свой дом благодаря увеличенному теплообменнику, состоящему из водяной рубашки, водонаполненных колосников, массивной верхней водонаполненной полки и труб, максимально замедляющих проход горячих дымогазов в дымоход. Благодаря такому решению мы добились увеличения эффективности теплообменника. Топливом для MARTEN BASE являются дрова, уголь, брикеты, щепа, ветки. Котел энергонезависим и будет поддерживать тепло в доме на протяжении 4-5 часов. После прогорания топлива котел легко чистится благодаря большим дверцам и встроенному зольному ящику. Регулировка горения осуществляется с помощью термомеханического регулятора (в комплекте не поставляется). При необходимости предусмотрена возможность для установки вентилятора наддува и контролера."
Котел на дровах и угле Marten Base MB-17V,10600,"Marten Base - это серия доступных, надежных и удобных котлов, которые появились благодаря глубокой проработке потребностей рынка и многолетнему опыту конструирования и производства котлов. Все эти требования максимально учтены в моделях MARTEN BASE. Вы можете максимально эффективно отопить свой дом благодаря увеличенному теплообменнику, состоящему из водяной рубашки, водонаполненных колосников, массивной верхней водонаполненной полки и труб, максимально замедляющих проход горячих дымогазов в дымоход. Благодаря такому решению мы добились увеличения эффективности теплообменника. Топливом для MARTEN BASE являются дрова, уголь, брикеты, щепа, ветки. Котел энергонезависим и будет поддерживать тепло в доме на протяжении 4-5 часов. После прогорания топлива котел легко чистится благодаря большим дверцам и встроенному зольному ящику. Регулировка горения осуществляется с помощью термомеханического регулятора (в комплекте не поставляется). При необходимости предусмотрена возможность для установки вентилятора наддува и контролера."
Котел на дровах и угле Marten Base MB-18,9700,"Marten Base - это серия доступных, надежных и удобных котлов, которые появились благодаря глубокой проработке потребностей рынка и многолетнему опыту конструирования и производства котлов. Все эти требования максимально учтены в моделях MARTEN BASE. Вы можете максимально эффективно отопить свой дом благодаря увеличенному теплообменнику, состоящему из водяной рубашки, водонаполненных колосников, массивной верхней водонаполненной полки и труб, максимально замедляющих проход горячих дымогазов в дымоход. Благодаря такому решению мы добились увеличения эффективности теплообменника. Топливом для MARTEN BASE являются дрова, уголь, брикеты, щепа, ветки. Котел энергонезависим и будет поддерживать тепло в доме на протяжении 4-5 часов. После прогорания топлива котел легко чистится благодаря большим дверцам и встроенному зольному ящику. Регулировка горения осуществляется с помощью термомеханического регулятора (в комплекте не поставляется). При необходимости предусмотрена возможность для установки вентилятора наддува и контролера."
Котел на дровах и угле Marten Comfort MC-17,23300,"Marten Сomfort серия полноценных твердотопливных котлов длительного горения по наилучшей цене. Оснащен турбиной и польским контроллером. Не требовательный к качеству топлива. Условия созданные во вместительной загрузочной камере и правильно распределенная подача вторичного воздуха через форсунки, позволяет сжигать топливо сверху вниз и дожигать пиролизные газы выделяемые из древесины, что увеличивает время горения. Это позволяет котлу работать на дровах до 12 часов, и до 24 часов на угле (на одной загрузке). Также топливом для него могут быть: торфяные брикеты, щепа."
Котел на дровах и угле Marten Comfort MC-20,25600,"Marten Сomfort серия полноценных твердотопливных котлов длительного горения по наилучшей цене. Оснащен турбиной и польским контроллером. Не требовательный к качеству топлива. Условия созданные во вместительной загрузочной камере и правильно распределенная подача вторичного воздуха через форсунки, позволяет сжигать топливо сверху вниз и дожигать пиролизные газы выделяемые из древесины, что увеличивает время горения. Это позволяет котлу работать на дровах до 12 часов, и до 24 часов на угле (на одной загрузке). Также топливом для него могут быть: торфяные брикеты, щепа."
Котел на дровах и угле Marten Comfort MC-24,27200,"Marten Сomfort серия полноценных твердотопливных котлов длительного горения по наилучшей цене. Оснащен турбиной и польским контроллером. Не требовательный к качеству топлива. Условия созданные во вместительной загрузочной камере и правильно распределенная подача вторичного воздуха через форсунки, позволяет сжигать топливо сверху вниз и дожигать пиролизные газы выделяемые из древесины, что увеличивает время горения. Это позволяет котлу работать на дровах до 12 часов, и до 24 часов на угле (на одной загрузке). Также топливом для него могут быть: торфяные брикеты, щепа."
Котел на дровах и угле Marten Comfort MC-33,30500,"Marten Сomfort серия полноценных твердотопливных котлов длительного горения по наилучшей цене. Оснащен турбиной и польским контроллером. Не требовательный к качеству топлива. Условия созданные во вместительной загрузочной камере и правильно распределенная подача вторичного воздуха через форсунки, позволяет сжигать топливо сверху вниз и дожигать пиролизные газы выделяемые из древесины, что увеличивает время горения. Это позволяет котлу работать на дровах до 12 часов, и до 24 часов на угле (на одной загрузке). Также топливом для него могут быть: торфяные брикеты, щепа."
Котел на дровах и угле Marten Comfort MC-45,36000,"Marten Сomfort серия полноценных твердотопливных котлов длительного горения по наилучшей цене. Оснащен турбиной и польским контроллером. Не требовательный к качеству топлива. Условия созданные во вместительной загрузочной камере и правильно распределенная подача вторичного воздуха через форсунки, позволяет сжигать топливо сверху вниз и дожигать пиролизные газы выделяемые из древесины, что увеличивает время горения. Это позволяет котлу работать на дровах до 12 часов, и до 24 часов на угле (на одной загрузке). Также топливом для него могут быть: торфяные брикеты, щепа."
Котел на дровах и угле Marten Comfort MC-98,83000,"Marten Сomfort серия полноценных твердотопливных котлов длительного горения по наилучшей цене. Оснащен турбиной и польским контроллером. Не требовательный к качеству топлива. Условия созданные во вместительной загрузочной камере и правильно распределенная подача вторичного воздуха через форсунки, позволяет сжигать топливо сверху вниз и дожигать пиролизные газы выделяемые из древесины, что увеличивает время горения. Это позволяет котлу работать на дровах до 12 часов, и до 24 часов на угле (на одной загрузке). Также топливом для него могут быть: торфяные брикеты, щепа."
Котел на дровах и угле Marten Comfort MC-12,21900,"Marten Сomfort серия полноценных твердотопливных котлов длительного горения по наилучшей цене. Оснащен турбиной и польским контроллером. Не требовательный к качеству топлива. Условия созданные во вместительной загрузочной камере и правильно распределенная подача вторичного воздуха через форсунки, позволяет сжигать топливо сверху вниз и дожигать пиролизные газы выделяемые из древесины, что увеличивает время горения. Это позволяет котлу работать на дровах до 12 часов, и до 24 часов на угле (на одной загрузке). Также топливом для него могут быть: торфяные брикеты, щепа."
Котел на дровах и угле Marten Comfort MC-50,40500,"Marten Сomfort серия полноценных твердотопливных котлов длительного горения по наилучшей цене. Оснащен турбиной и польским контроллером. Не требовательный к качеству топлива. Условия созданные во вместительной загрузочной камере и правильно распределенная подача вторичного воздуха через форсунки, позволяет сжигать топливо сверху вниз и дожигать пиролизные газы выделяемые из древесины, что увеличивает время горения. Это позволяет котлу работать на дровах до 12 часов, и до 24 часов на угле (на одной загрузке). Также топливом для него могут быть: торфяные брикеты, щепа."
Котел на дровах и угле Marten Comfort MC-80,67500,"Marten Сomfort серия полноценных твердотопливных котлов длительного горения по наилучшей цене. Оснащен турбиной и польским контроллером. Не требовательный к качеству топлива. Условия созданные во вместительной загрузочной камере и правильно распределенная подача вторичного воздуха через форсунки, позволяет сжигать топливо сверху вниз и дожигать пиролизные газы выделяемые из древесины, что увеличивает время горения. Это позволяет котлу работать на дровах до 12 часов, и до 24 часов на угле (на одной загрузке). Также топливом для него могут быть: торфяные брикеты, щепа."
Котел на дровах и угле Marten Comfort MC-40,35000,"Marten Сomfort серия полноценных твердотопливных котлов длительного горения по наилучшей цене. Оснащен турбиной и польским контроллером. Не требовательный к качеству топлива. Условия созданные во вместительной загрузочной камере и правильно распределенная подача вторичного воздуха через форсунки, позволяет сжигать топливо сверху вниз и дожигать пиролизные газы выделяемые из древесины, что увеличивает время горения. Это позволяет котлу работать на дровах до 12 часов, и до 24 часов на угле (на одной загрузке). Также топливом для него могут быть: торфяные брикеты, щепа."
Промышленный котел Marten industrial T-95,76000,"Модель твердотопливного котла Marten Industrial T характеризуется большим теплообменником, что в комплексе с автоматикой TM TECH (Польша), которая обеспечивает управление подачей воздуха в камеру сгорания и работой циркуляционного насоса, позволяет добиться максимально длительного периода автономной работы. (до 48 часов). Среди множества традиционных преимуществ, присущих всем продуктам торговой марки Marten, решение MIT обладает и несколькими отличительными чертами: возможность использования в работе топлива практически любой влажности; повышенным КПД – до 87%; загрузочные камеры увеличенного размера. Все вместе это делает Marten Industrial T выгодным для использования не только для обогрева частных домов, но и цехов, производств, прочих нежилых зданий."
Промышленный котел Marten Industrial T-250,149200,"Модель твердотопливного котла Marten Industrial T характеризуется большим теплообменником, что в комплексе с автоматикой TM TECH (Польша), которая обеспечивает управление подачей воздуха в камеру сгорания и работой циркуляционного насоса, позволяет добиться максимально длительного периода автономной работы. (до 48 часов). Среди множества традиционных преимуществ, присущих всем продуктам торговой марки Marten, решение MIT обладает и несколькими отличительными чертами: возможность использования в работе топлива практически любой влажности; повышенным КПД – до 87%; загрузочные камеры увеличенного размера. Все вместе это делает Marten Industrial T выгодным для использования не только для обогрева частных домов, но и цехов, производств, прочих нежилых зданий."
Промышленный котел Marten industrial T-150,99900,"одель твердотопливного котла Marten Industrial T характеризуется большим теплообменником, что в комплексе с автоматикой TM TECH (Польша), которая обеспечивает управление подачей воздуха в камеру сгорания и работой циркуляционного насоса, позволяет добиться максимально длительного периода автономной работы. (до 48 часов). Среди множества традиционных преимуществ, присущих всем продуктам торговой марки Marten, решение MIT обладает и несколькими отличительными чертами: возможность использования в работе топлива практически любой влажности; повышенным КПД – до 87%; загрузочные камеры увеличенного размера. Все вместе это делает Marten Industrial T выгодным для использования не только для обогрева частных домов, но и цехов, производств, прочих нежилых зданий."
Промышленный котел Marten Industrial T-200,127800,"Модель твердотопливного котла Marten Industrial T характеризуется большим теплообменником, что в комплексе с автоматикой TM TECH (Польша), которая обеспечивает управление подачей воздуха в камеру сгорания и работой циркуляционного насоса, позволяет добиться максимально длительного периода автономной работы. (до 48 часов). Среди множества традиционных преимуществ, присущих всем продуктам торговой марки Marten, решение MIT обладает и несколькими отличительными чертами: возможность использования в работе топлива практически любой влажности; повышенным КПД – до 87%; загрузочные камеры увеличенного размера. Все вместе это делает Marten Industrial T выгодным для использования не только для обогрева частных домов, но и цехов, производств, прочих нежилых зданий."
Промышленный котел Marten Industrial T-300,168800,"Модель твердотопливного котла Marten Industrial T характеризуется большим теплообменником, что в комплексе с автоматикой TM TECH (Польша), которая обеспечивает управление подачей воздуха в камеру сгорания и работой циркуляционного насоса, позволяет добиться максимально длительного периода автономной работы. (до 48 часов). Среди множества традиционных преимуществ, присущих всем продуктам торговой марки Marten, решение MIT обладает и несколькими отличительными чертами: возможность использования в работе топлива практически любой влажности; повышенным КПД – до 87%; загрузочные камеры увеличенного размера. Все вместе это делает Marten Industrial T выгодным для использования не только для обогрева частных домов, но и цехов, производств, прочих нежилых зданий."
Промышленный котел Marten Industrial T-400,208600,"Модель твердотопливного котла Marten Industrial T характеризуется большим теплообменником, что в комплексе с автоматикой TM TECH (Польша), которая обеспечивает управление подачей воздуха в камеру сгорания и работой циркуляционного насоса, позволяет добиться максимально длительного периода автономной работы. (до 48 часов). Среди множества традиционных преимуществ, присущих всем продуктам торговой марки Marten, решение MIT обладает и несколькими отличительными чертами: возможность использования в работе топлива практически любой влажности; повышенным КПД – до 87%; загрузочные камеры увеличенного размера. Все вместе это делает Marten Industrial T выгодным для использования не только для обогрева частных домов, но и цехов, производств, прочих нежилых зданий."
Промышленный котел Marten Industrial T-500,244100,"Модель твердотопливного котла Marten Industrial T характеризуется большим теплообменником, что в комплексе с автоматикой TM TECH (Польша), которая обеспечивает управление подачей воздуха в камеру сгорания и работой циркуляционного насоса, позволяет добиться максимально длительного периода автономной работы. (до 48 часов). Среди множества традиционных преимуществ, присущих всем продуктам торговой марки Marten, решение MIT обладает и несколькими отличительными чертами: возможность использования в работе топлива практически любой влажности; повышенным КПД – до 87%; загрузочные камеры увеличенного размера. Все вместе это делает Marten Industrial T выгодным для использования не только для обогрева частных домов, но и цехов, производств, прочих нежилых зданий."
Промышленный котел Marten Industrial T-600,298800,"Модель твердотопливного котла Marten Industrial T характеризуется большим теплообменником, что в комплексе с автоматикой TM TECH (Польша), которая обеспечивает управление подачей воздуха в камеру сгорания и работой циркуляционного насоса, позволяет добиться максимально длительного периода автономной работы. (до 48 часов). Среди множества традиционных преимуществ, присущих всем продуктам торговой марки Marten, решение MIT обладает и несколькими отличительными чертами: возможность использования в работе топлива практически любой влажности; повышенным КПД – до 87%; загрузочные камеры увеличенного размера. Все вместе это делает Marten Industrial T выгодным для использования не только для обогрева частных домов, но и цехов, производств, прочих нежилых зданий."
Промышленный котел Marten Industrial T-700,343400,"Модель твердотопливного котла Marten Industrial T характеризуется большим теплообменником, что в комплексе с автоматикой TM TECH (Польша), которая обеспечивает управление подачей воздуха в камеру сгорания и работой циркуляционного насоса, позволяет добиться максимально длительного периода автономной работы. (до 48 часов). Среди множества традиционных преимуществ, присущих всем продуктам торговой марки Marten, решение MIT обладает и несколькими отличительными чертами: возможность использования в работе топлива практически любой влажности; повышенным КПД – до 87%; загрузочные камеры увеличенного размера. Все вместе это делает Marten Industrial T выгодным для использования не только для обогрева частных домов, но и цехов, производств, прочих нежилых зданий."
Промышленный котел Marten Industrial T-800,375800,"Модель твердотопливного котла Marten Industrial T характеризуется большим теплообменником, что в комплексе с автоматикой TM TECH (Польша), которая обеспечивает управление подачей воздуха в камеру сгорания и работой циркуляционного насоса, позволяет добиться максимально длительного периода автономной работы. (до 48 часов). Среди множества традиционных преимуществ, присущих всем продуктам торговой марки Marten, решение MIT обладает и несколькими отличительными чертами: возможность использования в работе топлива практически любой влажности; повышенным КПД – до 87%; загрузочные камеры увеличенного размера. Все вместе это делает Marten Industrial T выгодным для использования не только для обогрева частных домов, но и цехов, производств, прочих нежилых зданий."
Промышленный котел Marten Industrial T-1000,483400,"Модель твердотопливного котла Marten Industrial T характеризуется большим теплообменником, что в комплексе с автоматикой TM TECH (Польша), которая обеспечивает управление подачей воздуха в камеру сгорания и работой циркуляционного насоса, позволяет добиться максимально длительного периода автономной работы. (до 48 часов). Среди множества традиционных преимуществ, присущих всем продуктам торговой марки Marten, решение MIT обладает и несколькими отличительными чертами: возможность использования в работе топлива практически любой влажности; повышенным КПД – до 87%; загрузочные камеры увеличенного размера. Все вместе это делает Marten Industrial T выгодным для использования не только для обогрева частных домов, но и цехов, производств, прочих нежилых зданий."
Модульная котельная КМ-200,690000,"Номенклатура блочно-модульных котельных Marten создана на базе огромного опыта нашей компании в области строительства котельных, поэтому Вы не испытаете никаких затруднений в выборе. Мы все продумали за Вас. Вам останется только выбрать! Главными преимуществами модульных решений на базе твердотопливных котлов Marten Industrial и Marten Industrial Pellet являются:оптимальная компоновка всего необходимого оборудования, что позволяет снизить площадь застройки и, соответственно, расходы на фундамент и прочие строительные работы, исключение затрат на проектирование внутренних систем, т.к. модульные котельные Marten являются серийными и требуют выполнения только проекта привязки, что дополнительно снижает итоговый объем на 10%, сокращение сроков ввода в эксплуатацию, т.к. вся котельная является готовым изделием, возможность установки котельной на протяжении 1 дня, широкая линейка опций, которая позволяет максимально адаптировать котельную к Вашим потребностям. Благодаря таким свойствам модульные котельные Marten могут найти широкий отклик среди потребителей с разными отопительными целями: от огромных нежилых комплексов до домов многоквартирного типа."
Модульная котельная КМ-300,904000,"Номенклатура блочно-модульных котельных Marten создана на базе огромного опыта нашей компании в области строительства котельных, поэтому Вы не испытаете никаких затруднений в выборе. Мы все продумали за Вас. Вам останется только выбрать! Главными преимуществами модульных решений на базе твердотопливных котлов Marten Industrial и Marten Industrial Pellet являются:оптимальная компоновка всего необходимого оборудования, что позволяет снизить площадь застройки и, соответственно, расходы на фундамент и прочие строительные работы, исключение затрат на проектирование внутренних систем, т.к. модульные котельные Marten являются серийными и требуют выполнения только проекта привязки, что дополнительно снижает итоговый объем на 10%, сокращение сроков ввода в эксплуатацию, т.к. вся котельная является готовым изделием, возможность установки котельной на протяжении 1 дня, широкая линейка опций, которая позволяет максимально адаптировать котельную к Вашим потребностям. Благодаря таким свойствам модульные котельные Marten могут найти широкий отклик среди потребителей с разными отопительными целями: от огромных нежилых комплексов до домов многоквартирного типа."
Модульная котельная КМ-350,790000,"Номенклатура блочно-модульных котельных Marten создана на базе огромного опыта нашей компании в области строительства котельных, поэтому Вы не испытаете никаких затруднений в выборе. Мы все продумали за Вас. Вам останется только выбрать! Главными преимуществами модульных решений на базе твердотопливных котлов Marten Industrial и Marten Industrial Pellet являются:оптимальная компоновка всего необходимого оборудования, что позволяет снизить площадь застройки и, соответственно, расходы на фундамент и прочие строительные работы, исключение затрат на проектирование внутренних систем, т.к. модульные котельные Marten являются серийными и требуют выполнения только проекта привязки, что дополнительно снижает итоговый объем на 10%, сокращение сроков ввода в эксплуатацию, т.к. вся котельная является готовым изделием, возможность установки котельной на протяжении 1 дня, широкая линейка опций, которая позволяет максимально адаптировать котельную к Вашим потребностям. Благодаря таким свойствам модульные котельные Marten могут найти широкий отклик среди потребителей с разными отопительными целями: от огромных нежилых комплексов до домов многоквартирного типа."
Модульная котельная КМ-400,700000,"Номенклатура блочно-модульных котельных Marten создана на базе огромного опыта нашей компании в области строительства котельных, поэтому Вы не испытаете никаких затруднений в выборе. Мы все продумали за Вас. Вам останется только выбрать! Главными преимуществами модульных решений на базе твердотопливных котлов Marten Industrial и Marten Industrial Pellet являются:оптимальная компоновка всего необходимого оборудования, что позволяет снизить площадь застройки и, соответственно, расходы на фундамент и прочие строительные работы, исключение затрат на проектирование внутренних систем, т.к. модульные котельные Marten являются серийными и требуют выполнения только проекта привязки, что дополнительно снижает итоговый объем на 10%, сокращение сроков ввода в эксплуатацию, т.к. вся котельная является готовым изделием, возможность установки котельной на протяжении 1 дня, широкая линейка опций, которая позволяет максимально адаптировать котельную к Вашим потребностям. Благодаря таким свойствам модульные котельные Marten могут найти широкий отклик среди потребителей с разными отопительными целями: от огромных нежилых комплексов до домов многоквартирного типа."
Модульная котельная КМ-500,200000,"Номенклатура блочно-модульных котельных Marten создана на базе огромного опыта нашей компании в области строительства котельных, поэтому Вы не испытаете никаких затруднений в выборе. Мы все продумали за Вас. Вам останется только выбрать! Главными преимуществами модульных решений на базе твердотопливных котлов Marten Industrial и Marten Industrial Pellet являются:оптимальная компоновка всего необходимого оборудования, что позволяет снизить площадь застройки и, соответственно, расходы на фундамент и прочие строительные работы, исключение затрат на проектирование внутренних систем, т.к. модульные котельные Marten являются серийными и требуют выполнения только проекта привязки, что дополнительно снижает итоговый объем на 10%, сокращение сроков ввода в эксплуатацию, т.к. вся котельная является готовым изделием, возможность установки котельной на протяжении 1 дня, широкая линейка опций, которая позволяет максимально адаптировать котельную к Вашим потребностям. Благодаря таким свойствам модульные котельные Marten могут найти широкий отклик среди потребителей с разными отопительными целями: от огромных нежилых комплексов до домов многоквартирного типа."
Модульная котельная КМ-600,1593000,"Номенклатура блочно-модульных котельных Marten создана на базе огромного опыта нашей компании в области строительства котельных, поэтому Вы не испытаете никаких затруднений в выборе. Мы все продумали за Вас. Вам останется только выбрать! Главными преимуществами модульных решений на базе твердотопливных котлов Marten Industrial и Marten Industrial Pellet являются:оптимальная компоновка всего необходимого оборудования, что позволяет снизить площадь застройки и, соответственно, расходы на фундамент и прочие строительные работы, исключение затрат на проектирование внутренних систем, т.к. модульные котельные Marten являются серийными и требуют выполнения только проекта привязки, что дополнительно снижает итоговый объем на 10%, сокращение сроков ввода в эксплуатацию, т.к. вся котельная является готовым изделием, возможность установки котельной на протяжении 1 дня, широкая линейка опций, которая позволяет максимально адаптировать котельную к Вашим потребностям. Благодаря таким свойствам модульные котельные Marten могут найти широкий отклик среди потребителей с разными отопительными целями: от огромных нежилых комплексов до домов многоквартирного типа."
Модульная котельная КМ-700,1000000,"Номенклатура блочно-модульных котельных Marten создана на базе огромного опыта нашей компании в области строительства котельных, поэтому Вы не испытаете никаких затруднений в выборе. Мы все продумали за Вас. Вам останется только выбрать! Главными преимуществами модульных решений на базе твердотопливных котлов Marten Industrial и Marten Industrial Pellet являются:оптимальная компоновка всего необходимого оборудования, что позволяет снизить площадь застройки и, соответственно, расходы на фундамент и прочие строительные работы, исключение затрат на проектирование внутренних систем, т.к. модульные котельные Marten являются серийными и требуют выполнения только проекта привязки, что дополнительно снижает итоговый объем на 10%, сокращение сроков ввода в эксплуатацию, т.к. вся котельная является готовым изделием, возможность установки котельной на протяжении 1 дня, широкая линейка опций, которая позволяет максимально адаптировать котельную к Вашим потребностям. Благодаря таким свойствам модульные котельные Marten могут найти широкий отклик среди потребителей с разными отопительными целями: от огромных нежилых комплексов до домов многоквартирного типа."
Модульная котельная КМ-850,1000000,"Номенклатура блочно-модульных котельных Marten создана на базе огромного опыта нашей компании в области строительства котельных, поэтому Вы не испытаете никаких затруднений в выборе. Мы все продумали за Вас. Вам останется только выбрать! Главными преимуществами модульных решений на базе твердотопливных котлов Marten Industrial и Marten Industrial Pellet являются:оптимальная компоновка всего необходимого оборудования, что позволяет снизить площадь застройки и, соответственно, расходы на фундамент и прочие строительные работы, исключение затрат на проектирование внутренних систем, т.к. модульные котельные Marten являются серийными и требуют выполнения только проекта привязки, что дополнительно снижает итоговый объем на 10%, сокращение сроков ввода в эксплуатацию, т.к. вся котельная является готовым изделием, возможность установки котельной на протяжении 1 дня, широкая линейка опций, которая позволяет максимально адаптировать котельную к Вашим потребностям. Благодаря таким свойствам модульные котельные Marten могут найти широкий отклик среди потребителей с разными отопительными целями: от огромных нежилых комплексов до домов многоквартирного типа."
Модульная котельная КМ-1000,1000000,"Номенклатура блочно-модульных котельных Marten создана на базе огромного опыта нашей компании в области строительства котельных, поэтому Вы не испытаете никаких затруднений в выборе. Мы все продумали за Вас. Вам останется только выбрать! Главными преимуществами модульных решений на базе твердотопливных котлов Marten Industrial и Marten Industrial Pellet являются:оптимальная компоновка всего необходимого оборудования, что позволяет снизить площадь застройки и, соответственно, расходы на фундамент и прочие строительные работы, исключение затрат на проектирование внутренних систем, т.к. модульные котельные Marten являются серийными и требуют выполнения только проекта привязки, что дополнительно снижает итоговый объем на 10%, сокращение сроков ввода в эксплуатацию, т.к. вся котельная является готовым изделием, возможность установки котельной на протяжении 1 дня, широкая линейка опций, которая позволяет максимально адаптировать котельную к Вашим потребностям. Благодаря таким свойствам модульные котельные Marten могут найти широкий отклик среди потребителей с разными отопительными целями: от огромных нежилых комплексов до домов многоквартирного типа."
Модульная котельная КМ-1500,800000,"Номенклатура блочно-модульных котельных Marten создана на базе огромного опыта нашей компании в области строительства котельных, поэтому Вы не испытаете никаких затруднений в выборе. Мы все продумали за Вас. Вам останется только выбрать! Главными преимуществами модульных решений на базе твердотопливных котлов Marten Industrial и Marten Industrial Pellet являются:оптимальная компоновка всего необходимого оборудования, что позволяет снизить площадь застройки и, соответственно, расходы на фундамент и прочие строительные работы, исключение затрат на проектирование внутренних систем, т.к. модульные котельные Marten являются серийными и требуют выполнения только проекта привязки, что дополнительно снижает итоговый объем на 10%, сокращение сроков ввода в эксплуатацию, т.к. вся котельная является готовым изделием, возможность установки котельной на протяжении 1 дня, широкая линейка опций, которая позволяет максимально адаптировать котельную к Вашим потребностям. Благодаря таким свойствам модульные котельные Marten могут найти широкий отклик среди потребителей с разными отопительными целями: от огромных нежилых комплексов до домов многоквартирного типа."
